pl\pkr\kgola\JFrameBiblio$3.class
pl\pkr\kgola\JFrameBiblio$9.class
pl\pkr\kgola\JFrameBiblio$13.class
pl\pkr\kgola\TextDocument.class
pl\pkr\kgola\JStatisticLabel.class
pl\pkr\kgola\ScaneDocument.class
pl\pkr\kgola\JFrameBiblio$11.class
pl\pkr\kgola\JFrameBiblio$1.class
pl\pkr\kgola\JFrameBiblio$12.class
pl\pkr\kgola\BiblioItem.class
pl\pkr\kgola\JFrameBiblio$2.class
pl\pkr\kgola\JFrameBiblio$6.class
pl\pkr\kgola\Counter.class
pl\pkr\kgola\JFrameBiblio$10.class
pl\pkr\kgola\JFrameBiblio$5.class
pl\pkr\kgola\JFrameBiblio$7.class
pl\pkr\kgola\Observer.class
pl\pkr\kgola\JFrameBiblio.class
pl\pkr\kgola\JFrameBiblio$4.class
pl\pkr\kgola\StaticFactory.class
pl\pkr\kgola\App.class
pl\pkr\kgola\JFrameBiblio$8.class
